{
  "__type__": "cc.AnimationClip",
  "_name": "idle2",
  "_objFlags": 0,
  "_native": "",
  "_duration": 1.5166666666666666,
  "sample": 60,
  "speed": 1,
  "wrapMode": 1,
  "curveData": {
    "comps": {
      "cc.Sprite": {
        "spriteFrame": [
          {
            "frame": 0,
            "value": {
              "__uuid__": "e5bf7613-721f-4723-a599-d7f63ab4da35"
            }
          },
          {
            "frame": 0.08333333333333333,
            "value": {
              "__uuid__": "61ecc749-63be-4c07-a8c7-c55c1600ff10"
            }
          },
          {
            "frame": 0.16666666666666666,
            "value": {
              "__uuid__": "4f939685-1f6a-4be5-86a2-a73fc26b796c"
            }
          },
          {
            "frame": 0.25,
            "value": {
              "__uuid__": "1639013c-b0e2-4346-80e2-86ecdc729688"
            }
          },
          {
            "frame": 0.3333333333333333,
            "value": {
              "__uuid__": "1b2f8cf6-b224-4469-95ab-5010d67e8388"
            }
          },
          {
            "frame": 0.4166666666666667,
            "value": {
              "__uuid__": "04c6d825-af89-4d0b-a183-50d3df161aec"
            }
          },
          {
            "frame": 0.5,
            "value": {
              "__uuid__": "451cbd15-37e6-4547-b30e-5d613906c29b"
            }
          },
          {
            "frame": 0.5833333333333334,
            "value": {
              "__uuid__": "88a09b6e-bf1a-4a99-a7d7-cbcac430f1fb"
            }
          },
          {
            "frame": 0.6666666666666666,
            "value": {
              "__uuid__": "9ab4d2de-09fe-48ea-885a-72750a74ccee"
            }
          },
          {
            "frame": 1.5,
            "value": {
              "__uuid__": "b4ced39c-bfb0-4c62-a46c-ebf668f68907"
            }
          }
        ]
      }
    }
  },
  "events": []
}