{
  "__type__": "cc.AnimationClip",
  "_name": "run",
  "_objFlags": 0,
  "_native": "",
  "_duration": 0.6,
  "sample": 60,
  "speed": 1,
  "wrapMode": 1,
  "curveData": {
    "comps": {
      "cc.Sprite": {
        "spriteFrame": [
          {
            "frame": 0,
            "value": {
              "__uuid__": "80ef7210-dae6-4d6f-bd12-d83e99c893cb"
            }
          },
          {
            "frame": 0.08333333333333333,
            "value": {
              "__uuid__": "b8d7cd7f-e21a-4910-8802-cf628831a376"
            }
          },
          {
            "frame": 0.16666666666666666,
            "value": {
              "__uuid__": "c2a479d3-913c-48f5-926c-92d5ec2c49d0"
            }
          },
          {
            "frame": 0.25,
            "value": {
              "__uuid__": "5d9d435c-6376-4e7f-8717-6e53bb17aacb"
            }
          },
          {
            "frame": 0.3333333333333333,
            "value": {
              "__uuid__": "1eaae988-17a8-4311-8bd1-408530233d24"
            }
          },
          {
            "frame": 0.4166666666666667,
            "value": {
              "__uuid__": "5d511e24-ab1f-44cd-803e-280946f37715"
            }
          },
          {
            "frame": 0.5,
            "value": {
              "__uuid__": "a3feea88-31d7-4acd-ad6d-690cf386adc3"
            }
          },
          {
            "frame": 0.5833333333333334,
            "value": {
              "__uuid__": "dcd5208b-e0b6-45d7-8cbf-6b40644b5ce2"
            }
          }
        ]
      }
    }
  },
  "events": []
}